demos/fifo/fifo.vcd
$date
    Mar  2, 2022  15:42:22
$end
$version
    TOOL:	xmsim(64)	20.09-s019
$end
$timescale
    1 ns
$end

$scope module testbench $end
$var integer  32 !    seed $end
$var integer  32 "    read_file $end
$var integer  32 #    write_file $end

$scope module DUT $end

$scope module mem1 $end
$var parameter 32 $    BW $end
$var parameter 32 %    AW $end
$var parameter 32 &    DEPTH $end
$upscope $end

$upscope $end

$upscope $end

$enddefinitions $end
$dumpvars
b100 &
b10 %
b1000 $
b10011010010 !
b10000000000000000000000000000011 "
b10000000000000000000000000000100 #
$end
#10
b101000101001000011000101011 !
b10100010011010101001111101110000 !
b11000111010100101110010110001 !
#30
b110111000100100011011010111110 !
b111101000110110111110000100111 !
b11010000011101110110011000111100 !
#50
b1100110000010011110101000001101 !
b100000111000000001010101101010 !
b11001001111100011000011111100011 !
#70
b10000010001100110101011111001000 !
b110110010110100111001100101001 !
b10010001011100000100110011010110 !
#90
b1110111101010100110010101011111 !
b11011111111110000000000000010100 !
b11110001101011010001010000000101 !
#110
b1100101101000100100100100000010 !
b11101001101010111001000010011011 !
b1100101010101011010101100100000 !
#130
b101010011010101010100010100001 !
b1010100110100011010111101110 !
b10001000001010000100010110010111 !
#150
b1011001010111110110010011101100 !
b11001110011011111100110011111101 !
b11001001111011001111111110011010 !
#170
b10111011010111011000000001010011 !
b1001001101101101111100101111000 !
b1001011101010001101110100011001 !
#190
b110100011000101001000000110 !
b10110000100011011111110011001111 !
b10010100010110001111010011000100 !
#210
b1000100011011011111010011110101 !
b1010110011100101001100100110010 !
b10100100101111100011011100001011 !
#230
b11001100001010001010001011010000 !
b101111100111101111000010010001 !
b100101000011110000000100011110 !
#250
b1110001001100000110101100000111 !
b10000100001111000000111110011100 !
b11111110110101111101101 !
#270
b1001010011100010111010111001010 !
b11010101101000001001010011000011 !
b11001101111010000000011100101000 !
#290
b10110010010100101100001100001001 !
b11000011001101101010001100110110 !
b10111100010000000111000000111111 !
#310
b1110101100011000001010101110100 !
b1010011101110000001000111100101 !
b1110101001100111111010101100010 !
#330
b1110011011100110111100101111011 !
b11001010000111101000011010000000 !
b11101101110001100011010010000001 !
#350
b10101100111000111001100001001110 !
b10011001010010101110110001110111 !
b1111011011110000110011001001100 !
#370
b1100010111001111100011011011101 !
b10111111100100000111011111111010 !
b110100110000011100010100110011 !
#390
b11011011011000011000000011011000 !
b100001011101110010010011111001 !
b11111110010000100100000001100110 !
#410
b111000101110001011111110101111 !
b10001101010111000110001000100100 !
b1000110000110100110101011010101 !
#430
b11100101011010010101110110010010 !
b1101100101100100101011111101011 !
b1110001001100100101011000110000 !
#450
b10001001110111110111010001110001 !
b110101010010101111101101111110 !
b1110111010011101100100111100111 !
#470
b1010100001111110110100011111100 !
b11000000101111101110111001101 !
b1011111001011010000011000101010 !
#490
b10000110100010000001000110100011 !
b10110101011111100110011010001000 !
b100111111101010000001011101001 !
#510
b1110011010000100010100110010110 !
b11010001101011011110101100011111 !
b10101000010101001101101011010100 !
#530
b11110101111000111111111111000101 !
b1111011010101011101000111000010 !
b11110001001000011101001001011011 !
#550
b10100010000111110001000111100000 !
b1111000101010011011000001100001 !
b11101110001110000010101010101110 !
#570
b11000111110100110000001101010111 !
b10111110011111000001011110101100 !
b11101110001111101011000010111101 !
#590
b10100111111010100010000001011010 !
b1111010011110100111101000010011 !
b11000110010110011011100000111000 !
#610
b11100011010110101110011011001 !
b10010010100010010101111011000110 !
b10110000100101101111001010001111 !
#630
b101110000000111111110000100 !
b11100001001000111101000010110101 !
b11101011111111000101000111110010 !
#650
b11011001010001110100011001011 !
b10111100010111111011100110010000 !
b1101110101000111110100001010001 !
#670
b11010100010111100010010111011110 !
b11111101001011101001100011000111 !
b10110100110110010111001001011100 !
#690
b1001111010010110011111110101101 !
b10010001001010101100011010001010 !
b110001110111111111111010000011 !
#710
b1001110110011100111010111101000 !
b1101001110010011001011001001 !
b10110001001010101101111111110110 !
#730
b11101100101010101101010111111111 !
b111101010100101000000110100 !
b11001101010001101110110100101 !
#750
b11111101000111111101111000100010 !
b101110111011101001101100111011 !
b1001110001011110100110101000000 !
#770
b1010000000011010001110001000001 !
b11100001001011111110110100001110 !
b10101111011110001000101000110111 !
#790
b101100110000100111100100001100 !
b110000111011001000101010011101 !
b10111011000100011111100010111010 !
#810
b10101111101111111001111011110011 !
b10110011101111001111110011000 !
b10110000011111011000010010111001 !
#830
b111000111110011010110100100110 !
b11111010111000001001010101101111 !
b11100010110111010100110011100100 !
#850
b110101000000100010011010010101 !
b10110101010000110111011001010010 !
b1010010110011110100110101011 !
#870
b11000100100010001100110011110000 !
b100000111001000100110000110001 !
b111010111000001000000000111110 !
#890
b1100100001111101011110100111 !
b11000110011000100010101110111100 !
b100100100011001000110001101 !
#910
b10011110100000101011011011101010 !
b1001000111000000101101101100011 !
b11011101100000011010101001000 !
#930
b1010100000101110101001010101001 !
b11011000100010001100011001010110 !
b11101111011110011000011011111 !
#950
b1001110111001000111010110010100 !
b111100011111101010101110000101 !
b10001011101010100001101010000010 !
#970
b10010101000100011101010000011011 !
b11011001001110011100010100000 !
b11110100111010000111100000100001 !
#990
b1100100011000101101111101101110 !
b1000111111100111000000100010111 !
b1111100101000111000101001101100 !
#1010
b10100111011010010101010001111101 !
b10111101001000000000000100011010 !
b10011110010010011001111010011 !
#1030
b1000011100100110011011011111000 !
b11001101101001011001110010011001 !
b10110011001010110010101110000110 !
#1050
b11010110010011011010100001001111 !
b110110000010101100101001000100 !
b10011101001011010110110001110101 !
#1070
b10011000010101101100101010110010 !
b110000011111010101101010001011 !
b10001100100001011001000001010000 !
#1090
b11011111100110001010000000010001 !
b1101101011010100000101010011110 !
b1011000100101000011010000111 !
#1110
b1010101001100011001010100011100 !
b1010010011000101101001101101101 !
b11010001010011001101011101001010 !
#1130
b1011000110000010010100001000011 !
b1001111110111010010010101000 !
b1101010100001110110001010001001 !
#1150
b10010000111100111101110010110110 !
b1010010001100101111101110111111 !
b1100101010110110100101011110100 !
#1170
b10111110111010110100101100101 !
b11000100000011001000011011100010 !
b100111110000110111110011111011 !
#1190
b1000001110111101101010000000000 !
b11100100001100111100010000000001 !
b100010011010010000000111001110 !
#1210
b11100100111110111110011111110111 !
b10000011101110100101111001100 !
b10001010001011010000111001011101 !
#1230
b11111110001011000011100101111010 !
b1110011110011100010110011 !
b110001100001000111111001011000 !
#1250
b11011111110110111010010001111001 !
b1110101101011101100111100110 !
b11011101100101100010101100101111 !
#1270
b111100101000001111011110100100 !
b10110001000111011010001001010101 !
b11111000010011100100111100010010 !
#1290
b11111110010110011101101101011 !
b11001011100000001110110000 !
b11100101101110001110001111110001 !
#1310
b111100100100101100010011111110 !
b10111010100001101010010101100111 !
b11011001100111111010111001111100 !
#1330
b1111001101110000010101001101 !
b11111111101000010010011110101010 !
b1010101110100110010100100011 !
#1350
b1110011100010001100010000001000 !
b111010100000010110001001101001 !
b11001110000001000010001100010110 !
#1370
b1010010001011100011011010011111 !
b1011110011001101101000001010100 !
b10100001001111010001011101000101 !
#1390
b1001111010111110010001101000010 !
b10000111001110111001010111011011 !
b11100111001011100001111101100000 !
#1410
b10010110111001101111111111100001 !
b10010001110110100101010000101110 !
b110110010010011011111011010111 !
#1430
b11110110100101011011110100101100 !
b11001101101011111011100000111101 !
b1011010010011101010000111011010 !
#1450
b11110001000010011010110110010011 !
b110000001000110111010110111000 !
b11001111000101111001110001011001 !
#1470
b10100101001100011011100001000110 !
b10000111011100100001111000001111 !
b1011111111101111101010100000100 !
#1490
b1000100010010101100100000110101 !
b1000100010000100000001101110010 !
b110011110111000110001001011 !
#1510
b11010110100010011100010000 !
b1101010001111010001011111010001 !
b1000100111100101010111101011110 !
#1530
b111000100111000011010001000111 !
b1111000000001000111011111011100 !
b11001101100001100010011100101101 !
#1550
b10001011100101111010100000001010 !
b100100000001000001001000000011 !
b11110001011111001001101101000 !
#1570
b101001111111010101001001001001 !
b11001111010100011001100101110110 !
b11000010100110001110000101111111 !
#1590
b1111001010111110000010110110100 !
b1010000101011011010100100101 !
b11100010101110011110111110100010 !
#1610
b11101111101100100001111010111011 !
b11011111011010001101011000000 !
b10000001111110100010101111000001 !
#1630
b11110101010011101101011010001110 !
b1000111100101010000010110110111 !
b11101001010101101101111010001100 !
#1650
b100010011010010101001000011101 !
b111001100111110011101000111010 !
b1110100101100001001001001110011 !
#1670
b11111011010010000001110100011000 !
b11111111010100011000010000111001 !
b11100001101101100011010100110 !
#1690
b100110100110011000000011101111 !
b110101011001110110001001100100 !
b1100110001011001101111000010101 !
#1710
b11110111010010011110011111010010 !
b10101110110001100100110100101011 !
b1010011111000011111101001110000 !
#1730
b10100000000111010011101110110001 !
b11101111001000011100100110111110 !
b11111111000010110011001100100111 !
#1750
b101101111111000100111100 !
b11011011110010000011100100001101 !
b1100011010010000101100001101010 !
#1770
b10000101110101100010111011100011 !
b111011110010000001001011001000 !
b11010111100110011001000101001 !
#1790
b100000011101000011111111010110 !
b100100001010101111110001011111 !
b100001100110111110101100010100 !
#1810
b10111111110111110100001100000101 !
b111111001101001110110000000010 !
b111001010111110001011110011011 !
#1830
b11011100111100111100011000100000 !
b10110011001010100011110100001 !
b1011011010111101000100011101110 !
#1850
b10000000100101011011110010010111 !
b1001111000100101010111111101100 !
b11110100110100011101101111111101 !
#1870
b10010000001101100000001010011010 !
b111011111110111110011101010011 !
b10111010110010100111010001111000 !
#1890
b1010000100000010101110000011001 !
b1100101010111010000010100000110 !
b11101001110001000101001111001111 !
#1910
b1111110010001111001111111000100 !
b1100010001110111110001111110101 !
b10011000011111011111110000110010 !
#1930
b1111110111000110111111000001011 !
b10100111100111010111110111010000 !
b10110110010100010100111110010001 !
#1950
b1101111101110000001010000011110 !
b11100011100010111010001000000111 !
b11110000000100100001101010011100 !
#1970
b1000100011101010011101011101101 !
b110010110011100011001010 !
b101101011010001011101111000011 !
#1990
b1101010001010100100001000101000 !
b1101011010110110000001000001001 !
b10011001000001000001011000110110 !
#2010
b11010011100111001000011100111111 !
b11101110011101011000000001110100 !
b1101100000100011100000011100101 !
